{
    "nodes": [
        {
            "id": "walter_to_area1_0",
            "x": 14.325150229131669,
            "y": 120.94091273859253,
            "type": "jeep"
        },
        {
            "id": "walter_to_area1_1",
            "x": 14.325202736347324,
            "y": 120.94085854638524,
            "type": "jeep"
        },
        {
            "id": "walter_to_area1_2",
            "x": 14.325453603992726,
            "y": 120.94079231146038,
            "type": "jeep"
        },
        {
            "id": "walter_to_area1_3",
            "x": 14.325695720168518,
            "y": 120.9407140338276,
            "type": "jeep"
        },
        {
            "id": "walter_to_area1_4",
            "x": 14.325946587255773,
            "y": 120.94064478822936,
            "type": "jeep"
        },
        {
            "id": "walter_to_area1_5",
            "x": 14.326241209872178,
            "y": 120.94055747856206,
            "type": "jeep"
        },
        {
            "id": "walter_to_area1_6",
            "x": 14.326605841302422,
            "y": 120.94047016888234,
            "type": "jeep"
        },
        {
            "id": "walter_to_area1_7",
            "x": 14.327014227783922,
            "y": 120.94034673107683,
            "type": "jeep"
        },
        {
            "id": "walter_to_area1_8",
            "x": 14.327311766049931,
            "y": 120.9402534000463,
            "type": "jeep"
        },
        {
            "id": "walter_to_area1_9",
            "x": 14.32763264019543,
            "y": 120.94016910105715,
            "type": "jeep"
        },
        {
            "id": "walter_to_area1_10",
            "x": 14.32791850951328,
            "y": 120.94009082342049,
            "type": "jeep"
        },
        {
            "id": "walter_to_area1_11",
            "x": 14.328198544399248,
            "y": 120.94000652443134,
            "type": "jeep"
        },
        {
            "id": "walter_to_area1_12",
            "x": 14.328618596082949,
            "y": 120.93988007594209,
            "type": "jeep"
        },
        {
            "id": "walter_to_area1_13",
            "x": 14.328986140659772,
            "y": 120.93978373423738,
            "type": "jeep"
        },
        {
            "id": "walter_to_area1_14",
            "x": 14.329298261368516,
            "y": 120.93969040321369,
            "type": "jeep"
        },
        {
            "id": "walter_to_area1_15",
            "x": 14.329703725951374,
            "y": 120.93956696539989,
            "type": "jeep"
        },
        {
            "id": "walter_to_area1_16",
            "x": 14.330056683722356,
            "y": 120.93946460234166,
            "type": "jeep"
        },
        {
            "id": "walter_to_area1_17",
            "x": 14.330421308950237,
            "y": 120.93936524995192,
            "type": "jeep"
        },
        {
            "id": "walter_to_area1_18",
            "x": 14.330730510681015,
            "y": 120.9392779402741,
            "type": "jeep"
        },
        {
            "id": "walter_to_area1_19",
            "x": 14.331077632854615,
            "y": 120.93919063060679,
            "type": "jeep"
        },
        {
            "id": "walter_to_area1_20",
            "x": 14.33136933175383,
            "y": 120.93909729957905,
            "type": "jeep"
        },
        {
            "id": "walter_to_area1_21",
            "x": 14.331742705779542,
            "y": 120.9389798831299,
            "type": "jeep"
        },
        {
            "id": "walter_to_area1_22",
            "x": 14.33218894081857,
            "y": 120.93884649673272,
            "type": "jeep"
        },
        {
            "id": "walter_to_area1_23",
            "x": 14.332495223125457,
            "y": 120.9387411229963,
            "type": "jeep"
        },
        {
            "id": "walter_to_area1_24",
            "x": 14.332830674695868,
            "y": 120.93865381332898,
            "type": "jeep"
        },
        {
            "id": "walter_to_area1_25",
            "x": 14.333227382012657,
            "y": 120.93855145026883,
            "type": "jeep"
        },
        {
            "id": "walter_to_area1_26",
            "x": 14.333577417279686,
            "y": 120.93845510856697,
            "type": "jeep"
        },
        {
            "id": "walter_to_area1_27",
            "x": 14.333977040208202,
            "y": 120.93835575618692,
            "type": "jeep"
        },
        {
            "id": "walter_to_area1_28",
            "x": 14.334446669188347,
            "y": 120.93821124363105,
            "type": "jeep"
        },
        {
            "id": "walter_to_area1_29",
            "x": 14.33477920089675,
            "y": 120.938111891251,
            "type": "jeep"
        },
        {
            "id": "walter_to_area1_30",
            "x": 14.335056310277032,
            "y": 120.93802759226185,
            "type": "jeep"
        },
        {
            "id": "walter_to_area1_31",
            "x": 14.335339253197512,
            "y": 120.93794028259123,
            "type": "jeep"
        },
        {
            "id": "walter_to_area1_32",
            "x": 14.335686368236798,
            "y": 120.937837919533,
            "type": "jeep"
        },
        {
            "id": "walter_to_area1_33",
            "x": 14.335998479619976,
            "y": 120.93774759918746,
            "type": "jeep"
        },
        {
            "id": "walter_to_area1_34",
            "x": 14.336374762883635,
            "y": 120.93763319341085,
            "type": "jeep"
        },
        {
            "id": "walter_to_area1_35",
            "x": 14.336651870291782,
            "y": 120.93755491577805,
            "type": "jeep"
        },
        {
            "id": "walter_to_area1_36",
            "x": 14.336949395771734,
            "y": 120.93746760611026,
            "type": "jeep"
        },
        {
            "id": "walter_to_area1_37",
            "x": 14.33720316718192,
            "y": 120.93741341390297,
            "type": "jeep"
        },
        {
            "id": "walter_to_area1_38",
            "x": 14.33743068613301,
            "y": 120.93736223237386,
            "type": "jeep"
        },
        {
            "id": "walter_to_area1_39",
            "x": 14.337693207712725,
            "y": 120.9372959974538,
            "type": "jeep"
        },
        {
            "id": "walter_to_area1_40",
            "x": 14.337976147311053,
            "y": 120.93725685864037,
            "type": "jeep"
        },
        {
            "id": "walter_to_area1_41",
            "x": 14.338305756898903,
            "y": 120.93722374118198,
            "type": "jeep"
        },
        {
            "id": "walter_to_area1_42",
            "x": 14.338667451805625,
            "y": 120.9372056771129,
            "type": "jeep"
        },
        {
            "id": "walter_to_area1_43",
            "x": 14.339189574875448,
            "y": 120.93719965575652,
            "type": "jeep"
        },
        {
            "id": "walter_to_area1_44",
            "x": 14.339735031774651,
            "y": 120.93721470914862,
            "type": "jeep"
        },
        {
            "id": "walter_to_area1_45",
            "x": 14.340397162147518,
            "y": 120.93725685864638,
            "type": "jeep"
        },
        {
            "id": "walter_to_area1_46",
            "x": 14.341035955680585,
            "y": 120.9372839547517,
            "type": "jeep"
        },
        {
            "id": "walter_to_area1_47",
            "x": 14.341852675347587,
            "y": 120.93732610424814,
            "type": "jeep"
        },
        {
            "id": "walter_to_area1_48",
            "x": 14.342508965794327,
            "y": 120.93736223238835,
            "type": "jeep"
        },
        {
            "id": "walter_to_area1_49",
            "x": 14.34330234544595,
            "y": 120.93739534985369,
            "type": "jeep"
        },
        {
            "id": "walter_to_area1_50",
            "x": 14.343824457717535,
            "y": 120.93741943527917,
            "type": "jeep"
        },
        {
            "id": "walter_to_area1_51",
            "x": 14.34449532647465,
            "y": 120.9374525527263,
            "type": "jeep"
        },
        {
            "id": "walter_to_area1_52",
            "x": 14.345288699093977,
            "y": 120.93749470222386,
            "type": "jeep"
        },
        {
            "id": "walter_to_area1_53",
            "x": 14.346157905572458,
            "y": 120.9375338410401,
            "type": "jeep"
        },
        {
            "id": "walter_to_area1_54",
            "x": 14.34669751191537,
            "y": 120.93756093714374,
            "type": "jeep"
        },
        {
            "id": "walter_to_area1_55",
            "x": 14.34722836663646,
            "y": 120.93759104392761,
            "type": "jeep"
        },
        {
            "id": "walter_to_area1_56",
            "x": 14.347709634921406,
            "y": 120.93761814003126,
            "type": "jeep"
        },
        {
            "id": "walter_to_area1_57",
            "x": 14.348470911752454,
            "y": 120.9376422254593,
            "type": "jeep"
        },
        {
            "id": "walter_to_area1_58",
            "x": 14.349308021603074,
            "y": 120.93768437496144,
            "type": "jeep"
        },
        {
            "id": "walter_to_area1_59",
            "x": 14.349768868187828,
            "y": 120.93771147106507,
            "type": "jeep"
        },
        {
            "id": "walter_to_area1_60",
            "x": 14.350075126469656,
            "y": 120.93772050309963,
            "type": "jeep"
        },
        {
            "id": "walter_to_area1_61",
            "x": 14.350352216951402,
            "y": 120.93774157785072,
            "type": "jeep"
        },
        {
            "id": "walter_to_area1_62",
            "x": 14.350451386087343,
            "y": 120.93833167077464,
            "type": "jeep"
        },
        {
            "id": "walter_to_area1_63",
            "x": 14.350530138016973,
            "y": 120.93893380641136,
            "type": "jeep"
        },
        {
            "id": "walter_to_area1_64",
            "x": 14.350527221279327,
            "y": 120.93917767134423,
            "type": "jeep"
        },
        {
            "id": "walter_to_area1_65",
            "x": 14.350530138016973,
            "y": 120.9394757284844,
            "type": "jeep"
        },
        {
            "id": "walter_to_area1_66",
            "x": 14.350521387803935,
            "y": 120.93974066816452,
            "type": "jeep"
        },
        {
            "id": "walter_to_area1_67",
            "x": 14.350547638442015,
            "y": 120.94004173598286,
            "type": "jeep"
        },
        {
            "id": "walter_to_area1_68",
            "x": 14.350553471921007,
            "y": 120.94064387165588,
            "type": "jeep"
        },
        {
            "id": "walter_to_area1_69",
            "x": 14.35057972255533,
            "y": 120.94109848406157,
            "type": "jeep"
        },
        {
            "id": "walter_to_area1_70",
            "x": 14.350588472766077,
            "y": 120.94137847713263,
            "type": "jeep"
        },
        {
            "id": "walter_to_area1_71",
            "x": 14.350611806659757,
            "y": 120.94174276919283,
            "type": "jeep"
        },
        {
            "id": "walter_to_area1_72",
            "x": 14.350635140558879,
            "y": 120.94214318946288,
            "type": "jeep"
        },
        {
            "id": "walter_to_area1_73",
            "x": 14.350696392011827,
            "y": 120.9424292038903,
            "type": "jeep"
        },
        {
            "id": "walter_to_area1_74",
            "x": 14.350801394463623,
            "y": 120.94260683390311,
            "type": "jeep"
        },
        {
            "id": "walter_to_area1_75",
            "x": 14.351345775884061,
            "y": 120.94401000975144,
            "type": "jeep"
        },
        {
            "id": "walter_to_area1_76",
            "x": 14.351201405219754,
            "y": 120.94432508264696,
            "type": "jeep"
        },
        {
            "id": "walter_to_area1_77",
            "x": 14.351061159342452,
            "y": 120.94456777393133,
            "type": "jeep"
        },
        {
            "id": "walter_to_area1_78",
            "x": 14.350854915245694,
            "y": 120.94473382586273,
            "type": "jeep"
        },
        {
            "id": "walter_to_area1_79",
            "x": 14.350689084239216,
            "y": 120.94481182259246,
            "type": "jeep"
        },
        {
            "id": "walter_to_area1_80",
            "x": 14.350486399900934,
            "y": 120.94481718701114,
            "type": "jeep"
        },
        {
            "id": "walter_to_area1_81",
            "x": 14.35026812425458,
            "y": 120.94476622503345,
            "type": "jeep"
        },
        {
            "id": "walter_to_area1_82",
            "x": 14.350112212927431,
            "y": 120.94472330969833,
            "type": "jeep"
        },
        {
            "id": "walter_to_area1_83",
            "x": 14.349995279376529,
            "y": 120.94472330969833,
            "type": "jeep"
        },
        {
            "id": "walter_to_area1_84",
            "x": 14.349849761983497,
            "y": 120.94475013179185,
            "type": "jeep"
        },
        {
            "id": "walter_to_area1_85",
            "x": 14.349647076885624,
            "y": 120.94480645818827,
            "type": "jeep"
        },
        {
            "id": "walter_to_area1_86",
            "x": 14.349452187195483,
            "y": 120.94484400911922,
            "type": "jeep"
        },
        {
            "id": "walter_to_area1_87",
            "x": 14.349181939877841,
            "y": 120.94490838214367,
            "type": "jeep"
        },
        {
            "id": "walter_to_area1_88",
            "x": 14.348823341956471,
            "y": 120.94504517483783,
            "type": "jeep"
        },
        {
            "id": "walter_to_area1_89",
            "x": 14.348581677826669,
            "y": 120.94514978100258,
            "type": "jeep"
        },
        {
            "id": "walter_to_area1_90",
            "x": 14.34835300615193,
            "y": 120.94524097612056,
            "type": "jeep"
        },
        {
            "id": "walter_to_area1_91",
            "x": 14.347976217074674,
            "y": 120.9453858154366,
            "type": "jeep"
        },
        {
            "id": "walter_to_area1_92",
            "x": 14.347731953480634,
            "y": 120.94550919706683,
            "type": "jeep"
        },
        {
            "id": "walter_to_area1_93",
            "x": 14.347396740233117,
            "y": 120.94562721428393,
            "type": "jeep"
        },
        {
            "id": "walter_to_area1_94",
            "x": 14.347131687550139,
            "y": 120.94573182044869,
            "type": "jeep"
        },
        {
            "id": "walter_to_area1_95",
            "x": 14.34676788922673,
            "y": 120.94588738860382,
            "type": "jeep"
        },
        {
            "id": "walter_to_area1_96",
            "x": 14.346518427186439,
            "y": 120.94598663034986,
            "type": "jeep"
        },
        {
            "id": "walter_to_area1_97",
            "x": 14.346097459353858,
            "y": 120.94618511385252,
            "type": "jeep"
        },
        {
            "id": "walter_to_area1_98",
            "x": 14.345710272191788,
            "y": 120.94633531758436,
            "type": "jeep"
        },
        {
            "id": "walter_to_area1_99",
            "x": 14.34538285166118,
            "y": 120.9464640636333,
            "type": "jeep"
        },
        {
            "id": "walter_to_area1_100",
            "x": 14.344977473188317,
            "y": 120.94663036063426,
            "type": "jeep"
        },
        {
            "id": "walter_to_area1_101",
            "x": 14.344569495392511,
            "y": 120.94680202204022,
            "type": "jeep"
        },
        {
            "id": "walter_to_area1_102",
            "x": 14.344205692921035,
            "y": 120.94696295460139,
            "type": "jeep"
        },
        {
            "id": "walter_to_area1_103",
            "x": 14.343719755826958,
            "y": 120.94717216694102,
            "type": "jeep"
        },
        {
            "id": "walter_to_area1_104",
            "x": 14.34333776176773,
            "y": 120.94733041729282,
            "type": "jeep"
        },
        {
            "id": "walter_to_area1_105",
            "x": 14.342979154494474,
            "y": 120.94748330324236,
            "type": "jeep"
        },
        {
            "id": "walter_to_area1_106",
            "x": 14.342672518845555,
            "y": 120.94760132045387,
            "type": "jeep"
        },
        {
            "id": "walter_to_area1_107",
            "x": 14.342170986733864,
            "y": 120.94780516837449,
            "type": "jeep"
        },
        {
            "id": "walter_to_area1_108",
            "x": 14.341866948597392,
            "y": 120.9479419610515,
            "type": "jeep"
        },
        {
            "id": "walter_to_area1_109",
            "x": 14.34139659817558,
            "y": 120.94813239793295,
            "type": "jeep"
        },
        {
            "id": "walter_to_area1_110",
            "x": 14.341102953497412,
            "y": 120.94827187281928,
            "type": "jeep"
        },
        {
            "id": "walter_to_area1_111",
            "x": 14.340549445213732,
            "y": 120.94846767410488,
            "type": "jeep"
        },
        {
            "id": "walter_to_area1_112",
            "x": 14.340328561236785,
            "y": 120.94860714900996,
            "type": "jeep"
        },
        {
            "id": "walter_to_area1_113",
            "x": 14.34000113284246,
            "y": 120.94885927668912,
            "type": "jeep"
        },
        {
            "id": "walter_to_area1_114",
            "x": 14.339741268696967,
            "y": 120.94908994669346,
            "type": "jeep"
        },
        {
            "id": "walter_to_area1_115",
            "x": 14.339382655668876,
            "y": 120.94939303637298,
            "type": "jeep"
        },
        {
            "id": "walter_to_area1_116",
            "x": 14.339138382706553,
            "y": 120.94964516405214,
            "type": "jeep"
        },
        {
            "id": "walter_to_area1_117",
            "x": 14.338670625212734,
            "y": 120.95001262675899,
            "type": "jeep"
        },
        {
            "id": "walter_to_area1_118",
            "x": 14.338384772939284,
            "y": 120.9502620722288,
            "type": "jeep"
        },
        {
            "id": "walter_to_area1_119",
            "x": 14.338122308258102,
            "y": 120.95049810665185,
            "type": "jeep"
        },
        {
            "id": "walter_to_area1_120",
            "x": 14.337748100634226,
            "y": 120.9508548405397,
            "type": "jeep"
        },
        {
            "id": "walter_to_area1_121",
            "x": 14.337457049845508,
            "y": 120.95111233263758,
            "type": "jeep"
        },
        {
            "id": "walter_to_area1_122",
            "x": 14.337178992042622,
            "y": 120.9513564136887,
            "type": "jeep"
        },
        {
            "id": "walter_to_area1_123",
            "x": 14.336711230450764,
            "y": 120.95176142733004,
            "type": "jeep"
        },
        {
            "id": "walter_to_area1_124",
            "x": 14.33647734930074,
            "y": 120.95196795745021,
            "type": "jeep"
        },
        {
            "id": "walter_to_area1_125",
            "x": 14.336295441570941,
            "y": 120.95214498326749,
            "type": "jeep"
        },
        {
            "id": "walter_to_area1_126",
            "x": 14.336053763930154,
            "y": 120.95235419559702,
            "type": "jeep"
        },
        {
            "id": "walter_to_area1_127",
            "x": 14.335801691274565,
            "y": 120.9525660901359,
            "type": "jeep"
        },
        {
            "id": "walter_to_area1_128",
            "x": 14.33550284186692,
            "y": 120.95283967551674,
            "type": "jeep"
        },
        {
            "id": "walter_to_area1_129",
            "x": 14.335242972506705,
            "y": 120.9530810743585,
            "type": "jeep"
        },
        {
            "id": "walter_to_area1_130",
            "x": 14.335037675499171,
            "y": 120.95326614680384,
            "type": "jeep"
        },
        {
            "id": "walter_to_area1_131",
            "x": 14.33458810037286,
            "y": 120.95358801194199,
            "type": "jeep"
        },
        {
            "id": "walter_to_area1_132",
            "x": 14.334372407945141,
            "y": 120.95376771996862,
            "type": "jeep"
        },
        {
            "id": "walter_to_area1_133",
            "x": 14.33429704548172,
            "y": 120.95384013962114,
            "type": "jeep"
        },
        {
            "id": "walter_to_area1_134",
            "x": 14.334284051950993,
            "y": 120.95396620346074,
            "type": "jeep"
        },
        {
            "id": "walter_to_area1_135",
            "x": 14.334439974270113,
            "y": 120.95410567834709,
            "type": "jeep"
        },
        {
            "id": "walter_to_area1_136",
            "x": 14.33458810037286,
            "y": 120.95421833113988,
            "type": "jeep"
        },
        {
            "id": "walter_to_area1_137",
            "x": 14.334655666632832,
            "y": 120.9542692931176,
            "type": "jeep"
        },
        {
            "id": "walter_to_area1_138",
            "x": 14.334858365290607,
            "y": 120.95435780602627,
            "type": "jeep"
        },
        {
            "id": "walter_to_area1_139",
            "x": 14.335198794675295,
            "y": 120.95444095451617,
            "type": "jeep"
        },
        {
            "id": "walter_to_area1_140",
            "x": 14.335547019631171,
            "y": 120.95454287849392,
            "type": "jeep"
        },
        {
            "id": "walter_to_area1_141",
            "x": 14.335892645353555,
            "y": 120.95464480245754,
            "type": "jeep"
        },
        {
            "id": "walter_to_area1_142",
            "x": 14.336165507383164,
            "y": 120.9547252687381,
            "type": "jeep"
        },
        {
            "id": "walter_to_area1_143",
            "x": 14.336425375682563,
            "y": 120.95484596816551,
            "type": "jeep"
        }
    ],
    "links": [
        {
            "source": "walter_to_area1_0",
            "target": "walter_to_area1_1",
            "weight": 1
        },
        {
            "source": "walter_to_area1_1",
            "target": "walter_to_area1_2",
            "weight": 1
        },
        {
            "source": "walter_to_area1_2",
            "target": "walter_to_area1_3",
            "weight": 1
        },
        {
            "source": "walter_to_area1_3",
            "target": "walter_to_area1_4",
            "weight": 1
        },
        {
            "source": "walter_to_area1_4",
            "target": "walter_to_area1_5",
            "weight": 1
        },
        {
            "source": "walter_to_area1_5",
            "target": "walter_to_area1_6",
            "weight": 1
        },
        {
            "source": "walter_to_area1_6",
            "target": "walter_to_area1_7",
            "weight": 1
        },
        {
            "source": "walter_to_area1_7",
            "target": "walter_to_area1_8",
            "weight": 1
        },
        {
            "source": "walter_to_area1_8",
            "target": "walter_to_area1_9",
            "weight": 1
        },
        {
            "source": "walter_to_area1_9",
            "target": "walter_to_area1_10",
            "weight": 1
        },
        {
            "source": "walter_to_area1_10",
            "target": "walter_to_area1_11",
            "weight": 1
        },
        {
            "source": "walter_to_area1_11",
            "target": "walter_to_area1_12",
            "weight": 1
        },
        {
            "source": "walter_to_area1_12",
            "target": "walter_to_area1_13",
            "weight": 1
        },
        {
            "source": "walter_to_area1_13",
            "target": "walter_to_area1_14",
            "weight": 1
        },
        {
            "source": "walter_to_area1_14",
            "target": "walter_to_area1_15",
            "weight": 1
        },
        {
            "source": "walter_to_area1_15",
            "target": "walter_to_area1_16",
            "weight": 1
        },
        {
            "source": "walter_to_area1_16",
            "target": "walter_to_area1_17",
            "weight": 1
        },
        {
            "source": "walter_to_area1_17",
            "target": "walter_to_area1_18",
            "weight": 1
        },
        {
            "source": "walter_to_area1_18",
            "target": "walter_to_area1_19",
            "weight": 1
        },
        {
            "source": "walter_to_area1_19",
            "target": "walter_to_area1_20",
            "weight": 1
        },
        {
            "source": "walter_to_area1_20",
            "target": "walter_to_area1_21",
            "weight": 1
        },
        {
            "source": "walter_to_area1_21",
            "target": "walter_to_area1_22",
            "weight": 1
        },
        {
            "source": "walter_to_area1_22",
            "target": "walter_to_area1_23",
            "weight": 1
        },
        {
            "source": "walter_to_area1_23",
            "target": "walter_to_area1_24",
            "weight": 1
        },
        {
            "source": "walter_to_area1_24",
            "target": "walter_to_area1_25",
            "weight": 1
        },
        {
            "source": "walter_to_area1_25",
            "target": "walter_to_area1_26",
            "weight": 1
        },
        {
            "source": "walter_to_area1_26",
            "target": "walter_to_area1_27",
            "weight": 1
        },
        {
            "source": "walter_to_area1_27",
            "target": "walter_to_area1_28",
            "weight": 1
        },
        {
            "source": "walter_to_area1_28",
            "target": "walter_to_area1_29",
            "weight": 1
        },
        {
            "source": "walter_to_area1_29",
            "target": "walter_to_area1_30",
            "weight": 1
        },
        {
            "source": "walter_to_area1_30",
            "target": "walter_to_area1_31",
            "weight": 1
        },
        {
            "source": "walter_to_area1_31",
            "target": "walter_to_area1_32",
            "weight": 1
        },
        {
            "source": "walter_to_area1_32",
            "target": "walter_to_area1_33",
            "weight": 1
        },
        {
            "source": "walter_to_area1_33",
            "target": "walter_to_area1_34",
            "weight": 1
        },
        {
            "source": "walter_to_area1_34",
            "target": "walter_to_area1_35",
            "weight": 1
        },
        {
            "source": "walter_to_area1_35",
            "target": "walter_to_area1_36",
            "weight": 1
        },
        {
            "source": "walter_to_area1_36",
            "target": "walter_to_area1_37",
            "weight": 1
        },
        {
            "source": "walter_to_area1_37",
            "target": "walter_to_area1_38",
            "weight": 1
        },
        {
            "source": "walter_to_area1_38",
            "target": "walter_to_area1_39",
            "weight": 1
        },
        {
            "source": "walter_to_area1_39",
            "target": "walter_to_area1_40",
            "weight": 1
        },
        {
            "source": "walter_to_area1_40",
            "target": "walter_to_area1_41",
            "weight": 1
        },
        {
            "source": "walter_to_area1_41",
            "target": "walter_to_area1_42",
            "weight": 1
        },
        {
            "source": "walter_to_area1_42",
            "target": "walter_to_area1_43",
            "weight": 1
        },
        {
            "source": "walter_to_area1_43",
            "target": "walter_to_area1_44",
            "weight": 1
        },
        {
            "source": "walter_to_area1_44",
            "target": "walter_to_area1_45",
            "weight": 1
        },
        {
            "source": "walter_to_area1_45",
            "target": "walter_to_area1_46",
            "weight": 1
        },
        {
            "source": "walter_to_area1_46",
            "target": "walter_to_area1_47",
            "weight": 1
        },
        {
            "source": "walter_to_area1_47",
            "target": "walter_to_area1_48",
            "weight": 1
        },
        {
            "source": "walter_to_area1_48",
            "target": "walter_to_area1_49",
            "weight": 1
        },
        {
            "source": "walter_to_area1_49",
            "target": "walter_to_area1_50",
            "weight": 1
        },
        {
            "source": "walter_to_area1_50",
            "target": "walter_to_area1_51",
            "weight": 1
        },
        {
            "source": "walter_to_area1_51",
            "target": "walter_to_area1_52",
            "weight": 1
        },
        {
            "source": "walter_to_area1_52",
            "target": "walter_to_area1_53",
            "weight": 1
        },
        {
            "source": "walter_to_area1_53",
            "target": "walter_to_area1_54",
            "weight": 1
        },
        {
            "source": "walter_to_area1_54",
            "target": "walter_to_area1_55",
            "weight": 1
        },
        {
            "source": "walter_to_area1_55",
            "target": "walter_to_area1_56",
            "weight": 1
        },
        {
            "source": "walter_to_area1_56",
            "target": "walter_to_area1_57",
            "weight": 1
        },
        {
            "source": "walter_to_area1_57",
            "target": "walter_to_area1_58",
            "weight": 1
        },
        {
            "source": "walter_to_area1_58",
            "target": "walter_to_area1_59",
            "weight": 1
        },
        {
            "source": "walter_to_area1_59",
            "target": "walter_to_area1_60",
            "weight": 1
        },
        {
            "source": "walter_to_area1_60",
            "target": "walter_to_area1_61",
            "weight": 1
        },
        {
            "source": "walter_to_area1_61",
            "target": "walter_to_area1_62",
            "weight": 1
        },
        {
            "source": "walter_to_area1_62",
            "target": "walter_to_area1_63",
            "weight": 1
        },
        {
            "source": "walter_to_area1_63",
            "target": "walter_to_area1_64",
            "weight": 1
        },
        {
            "source": "walter_to_area1_64",
            "target": "walter_to_area1_65",
            "weight": 1
        },
        {
            "source": "walter_to_area1_65",
            "target": "walter_to_area1_66",
            "weight": 1
        },
        {
            "source": "walter_to_area1_66",
            "target": "walter_to_area1_67",
            "weight": 1
        },
        {
            "source": "walter_to_area1_67",
            "target": "walter_to_area1_68",
            "weight": 1
        },
        {
            "source": "walter_to_area1_68",
            "target": "walter_to_area1_69",
            "weight": 1
        },
        {
            "source": "walter_to_area1_69",
            "target": "walter_to_area1_70",
            "weight": 1
        },
        {
            "source": "walter_to_area1_70",
            "target": "walter_to_area1_71",
            "weight": 1
        },
        {
            "source": "walter_to_area1_71",
            "target": "walter_to_area1_72",
            "weight": 1
        },
        {
            "source": "walter_to_area1_72",
            "target": "walter_to_area1_73",
            "weight": 1
        },
        {
            "source": "walter_to_area1_73",
            "target": "walter_to_area1_74",
            "weight": 1
        },
        {
            "source": "walter_to_area1_74",
            "target": "walter_to_area1_75",
            "weight": 1
        },
        {
            "source": "walter_to_area1_75",
            "target": "walter_to_area1_76",
            "weight": 1
        },
        {
            "source": "walter_to_area1_76",
            "target": "walter_to_area1_77",
            "weight": 1
        },
        {
            "source": "walter_to_area1_77",
            "target": "walter_to_area1_78",
            "weight": 1
        },
        {
            "source": "walter_to_area1_78",
            "target": "walter_to_area1_79",
            "weight": 1
        },
        {
            "source": "walter_to_area1_79",
            "target": "walter_to_area1_80",
            "weight": 1
        },
        {
            "source": "walter_to_area1_80",
            "target": "walter_to_area1_81",
            "weight": 1
        },
        {
            "source": "walter_to_area1_81",
            "target": "walter_to_area1_82",
            "weight": 1
        },
        {
            "source": "walter_to_area1_82",
            "target": "walter_to_area1_83",
            "weight": 1
        },
        {
            "source": "walter_to_area1_83",
            "target": "walter_to_area1_84",
            "weight": 1
        },
        {
            "source": "walter_to_area1_84",
            "target": "walter_to_area1_85",
            "weight": 1
        },
        {
            "source": "walter_to_area1_85",
            "target": "walter_to_area1_86",
            "weight": 1
        },
        {
            "source": "walter_to_area1_86",
            "target": "walter_to_area1_87",
            "weight": 1
        },
        {
            "source": "walter_to_area1_87",
            "target": "walter_to_area1_88",
            "weight": 1
        },
        {
            "source": "walter_to_area1_88",
            "target": "walter_to_area1_89",
            "weight": 1
        },
        {
            "source": "walter_to_area1_89",
            "target": "walter_to_area1_90",
            "weight": 1
        },
        {
            "source": "walter_to_area1_90",
            "target": "walter_to_area1_91",
            "weight": 1
        },
        {
            "source": "walter_to_area1_91",
            "target": "walter_to_area1_92",
            "weight": 1
        },
        {
            "source": "walter_to_area1_92",
            "target": "walter_to_area1_93",
            "weight": 1
        },
        {
            "source": "walter_to_area1_93",
            "target": "walter_to_area1_94",
            "weight": 1
        },
        {
            "source": "walter_to_area1_94",
            "target": "walter_to_area1_95",
            "weight": 1
        },
        {
            "source": "walter_to_area1_95",
            "target": "walter_to_area1_96",
            "weight": 1
        },
        {
            "source": "walter_to_area1_96",
            "target": "walter_to_area1_97",
            "weight": 1
        },
        {
            "source": "walter_to_area1_97",
            "target": "walter_to_area1_98",
            "weight": 1
        },
        {
            "source": "walter_to_area1_98",
            "target": "walter_to_area1_99",
            "weight": 1
        },
        {
            "source": "walter_to_area1_99",
            "target": "walter_to_area1_100",
            "weight": 1
        },
        {
            "source": "walter_to_area1_100",
            "target": "walter_to_area1_101",
            "weight": 1
        },
        {
            "source": "walter_to_area1_101",
            "target": "walter_to_area1_102",
            "weight": 1
        },
        {
            "source": "walter_to_area1_102",
            "target": "walter_to_area1_103",
            "weight": 1
        },
        {
            "source": "walter_to_area1_103",
            "target": "walter_to_area1_104",
            "weight": 1
        },
        {
            "source": "walter_to_area1_104",
            "target": "walter_to_area1_105",
            "weight": 1
        },
        {
            "source": "walter_to_area1_105",
            "target": "walter_to_area1_106",
            "weight": 1
        },
        {
            "source": "walter_to_area1_106",
            "target": "walter_to_area1_107",
            "weight": 1
        },
        {
            "source": "walter_to_area1_107",
            "target": "walter_to_area1_108",
            "weight": 1
        },
        {
            "source": "walter_to_area1_108",
            "target": "walter_to_area1_109",
            "weight": 1
        },
        {
            "source": "walter_to_area1_109",
            "target": "walter_to_area1_110",
            "weight": 1
        },
        {
            "source": "walter_to_area1_110",
            "target": "walter_to_area1_111",
            "weight": 1
        },
        {
            "source": "walter_to_area1_111",
            "target": "walter_to_area1_112",
            "weight": 1
        },
        {
            "source": "walter_to_area1_112",
            "target": "walter_to_area1_113",
            "weight": 1
        },
        {
            "source": "walter_to_area1_113",
            "target": "walter_to_area1_114",
            "weight": 1
        },
        {
            "source": "walter_to_area1_114",
            "target": "walter_to_area1_115",
            "weight": 1
        },
        {
            "source": "walter_to_area1_115",
            "target": "walter_to_area1_116",
            "weight": 1
        },
        {
            "source": "walter_to_area1_116",
            "target": "walter_to_area1_117",
            "weight": 1
        },
        {
            "source": "walter_to_area1_117",
            "target": "walter_to_area1_118",
            "weight": 1
        },
        {
            "source": "walter_to_area1_118",
            "target": "walter_to_area1_119",
            "weight": 1
        },
        {
            "source": "walter_to_area1_119",
            "target": "walter_to_area1_120",
            "weight": 1
        },
        {
            "source": "walter_to_area1_120",
            "target": "walter_to_area1_121",
            "weight": 1
        },
        {
            "source": "walter_to_area1_121",
            "target": "walter_to_area1_122",
            "weight": 1
        },
        {
            "source": "walter_to_area1_122",
            "target": "walter_to_area1_123",
            "weight": 1
        },
        {
            "source": "walter_to_area1_123",
            "target": "walter_to_area1_124",
            "weight": 1
        },
        {
            "source": "walter_to_area1_124",
            "target": "walter_to_area1_125",
            "weight": 1
        },
        {
            "source": "walter_to_area1_125",
            "target": "walter_to_area1_126",
            "weight": 1
        },
        {
            "source": "walter_to_area1_126",
            "target": "walter_to_area1_127",
            "weight": 1
        },
        {
            "source": "walter_to_area1_127",
            "target": "walter_to_area1_128",
            "weight": 1
        },
        {
            "source": "walter_to_area1_128",
            "target": "walter_to_area1_129",
            "weight": 1
        },
        {
            "source": "walter_to_area1_129",
            "target": "walter_to_area1_130",
            "weight": 1
        },
        {
            "source": "walter_to_area1_130",
            "target": "walter_to_area1_131",
            "weight": 1
        },
        {
            "source": "walter_to_area1_131",
            "target": "walter_to_area1_132",
            "weight": 1
        },
        {
            "source": "walter_to_area1_132",
            "target": "walter_to_area1_133",
            "weight": 1
        },
        {
            "source": "walter_to_area1_133",
            "target": "walter_to_area1_134",
            "weight": 1
        },
        {
            "source": "walter_to_area1_134",
            "target": "walter_to_area1_135",
            "weight": 1
        },
        {
            "source": "walter_to_area1_135",
            "target": "walter_to_area1_136",
            "weight": 1
        },
        {
            "source": "walter_to_area1_136",
            "target": "walter_to_area1_137",
            "weight": 1
        },
        {
            "source": "walter_to_area1_137",
            "target": "walter_to_area1_138",
            "weight": 1
        },
        {
            "source": "walter_to_area1_138",
            "target": "walter_to_area1_139",
            "weight": 1
        },
        {
            "source": "walter_to_area1_139",
            "target": "walter_to_area1_140",
            "weight": 1
        },
        {
            "source": "walter_to_area1_140",
            "target": "walter_to_area1_141",
            "weight": 1
        },
        {
            "source": "walter_to_area1_141",
            "target": "walter_to_area1_142",
            "weight": 1
        },
        {
            "source": "walter_to_area1_142",
            "target": "walter_to_area1_143",
            "weight": 1
        }
    ]
}